StatComp 2018 WC
…
How often has every nation participated?

##How often has every nation participated
### NarrowData

Hist1 = Hist_Data %>%
  group_by(`Home.Team.Name`) %>%
  select(`Year`, `Home.Team.Name`)

Histunique = unique(Hist1)

###Gives a tibble with the frequency of participation of every country
count(Histunique)

## # A tibble: 79 x 2
## # Groups:   Home.Team.Name [79]
##    Home.Team.Name     n
##    <fct>          <int>
##  1 ""                 1
##  2 Algeria            4
##  3 Angola             1
##  4 Argentina         15
##  5 Australia          4
##  6 Austria            5
##  7 Belgium            8
##  8 Bolivia            1
##  9 Brazil            19
## 10 Bulgaria           4
## # ... with 69 more rows
…
